ncols         10
nrows         10
xllcorner     186000
yllcorner     220500
cellsize      50
NODATA_value  -9999
20.17 20.18 20.19 20.21 20.25 20.29 20.33 20.38 20.42 20.43 
20.05 20.06 20.07 20.09 20.13 20.17 20.21 20.27 20.32 20.34 
19.93 19.95 19.97 19.99 20.02 20.06 20.11 20.17 20.22 20.25 
19.84 19.85 19.87 19.89 19.93 19.97 20.01 20.07 20.12 20.16 
19.76 19.77 19.79 19.82 19.85 19.89 19.93 19.97 20.02 20.07 
19.7 19.71 19.73 19.76 19.78 19.81 19.85 19.89 19.93 19.97 
19.65 19.67 19.68 19.7 19.73 19.75 19.78 19.81 19.85 19.88 
19.62 19.64 19.65 19.67 19.68 19.7 19.73 19.75 19.77 19.79 
19.61 19.62 19.63 19.65 19.66 19.66 19.68 19.69 19.71 19.73 
19.6 19.62 19.63 19.64 19.64 19.64 19.64 19.65 19.67 19.68 
