1	1.0000
2	0.5000
10	0.3000
4	0.3000
201	0.3000
202	0.3000
5	0.3000
6	0.8000
3	0.6000
7	0.0000
21	0.0000
27	0.0000
23	0.0000
28	0.0000
29	0.0000
31	0.0000
32	0.0000
33	0.0000
36	0.0000
35	0.0000
54	0.0000
53	0.0000
44	0.0000
37	0.0000
51	0.0000
55	0.0000
52	0.0000
301	0.0000
302	0.0000
303	0.0000
304	0.0000
305	0.0000
306	0.0000
307	0.0000
