ncols         10
nrows         10
xllcorner     186000
yllcorner     220500
cellsize      50
NODATA_value  -9999
28 28 28 28 35 28 28 28 28 28 
27 27 28 10 28 28 28 28 28 28 
27 27 33 4 27 28 28 28 28 28 
27 28 33 27 27 28 28 28 28 28 
27 28 33 27 27 1 201 201 28 28 
27 27 201 201 28 28 28 21 33 33 
28 28 28 28 28 28 28 28 31 31 
23 23 23 23 35 27 23 23 31 31 
23 23 23 35 31 27 23 23 23 31 
23 23 23 31 31 27 31 23 31 27 
