ncols         10
nrows         10
xllcorner     186000
yllcorner     220500
cellsize      50
NODATA_value  -9999
385.8936 385.8681 385.8428 385.818 385.7932 385.7686 385.744 385.7198 385.6959 385.6724 
385.7848 385.7586 385.7328 385.7072 385.6818 385.6566 385.6316 385.6067 385.582 385.5578 
385.6751 385.6483 385.6216 385.5954 385.5694 385.5437 385.518 385.4926 385.4673 385.4424 
385.5642 385.5367 385.5095 385.4825 385.4558 385.4295 385.4033 385.3771 385.3513 385.3258 
385.4523 385.4243 385.3964 385.3688 385.3416 385.3146 385.2877 385.2609 385.2344 385.2083 
385.3398 385.3109 385.2826 385.2544 385.2264 385.1987 385.1712 385.1437 385.1166 385.0899 
385.2265 385.1971 385.168 385.139 385.1104 385.082 385.054 385.026 384.9982 384.9708 
385.1124 385.0823 385.0524 385.0227 384.9934 384.9644 384.9357 384.9072 384.8788 384.8506 
384.9975 384.9666 384.9361 384.9058 384.8757 384.8461 384.8168 384.7876 384.7585 384.7296 
384.8818 384.8502 384.819 384.788 384.7574 384.7271 384.6971 384.6673 384.6376 384.6082 
