1	0.3000
2	0.3000
10	0.3000
4	0.3000
201	0.3000
202	0.3000
5	0.3000
6	0.3000
3	0.3000
7	0.0500
21	0.3500
27	0.4000
23	0.3000
28	0.3000
29	0.8000
31	2.0000
32	2.0000
33	2.0000
36	0.6000
35	0.2000
54	0.0500
53	0.0500
44	0.3000
37	0.5000
51	0.0500
55	0.0500
52	0.0500
301	2.0000
302	2.0000
303	2.0000
304	2.0000
305	2.0000
306	2.0000
307	0.3000
