111	0.3500
112	0.4000
113	0.4500
114	0.5000
121	0.1500
122	0.2000
123	0.2500
124	0.3000
131	0.0500
132	0.1000
133	0.1500
134	0.2000
141	0.4500
142	0.4800
143	0.5300
144	0.5800
151	1.0000
152	1.0000
153	1.0000
154	1.0000
211	0.3800
212	0.4300
213	0.4800
214	0.5300
221	0.1800
222	0.2300
223	0.2800
224	0.3300
231	0.0800
232	0.1300
233	0.1800
234	0.2300
241	0.4800
242	0.5300
243	0.5800
244	0.6300
251	1.0000
252	1.0000
253	1.0000
254	1.0000
311	0.4000
312	0.4500
313	0.5000
314	0.5500
321	0.2000
322	0.2500
323	0.3000
324	0.3500
331	0.1000
332	0.1500
333	0.2000
334	0.2500
341	0.5000
342	0.5500
343	0.6000
344	0.6500
351	1.0000
352	1.0000
353	1.0000
354	1.0000
411	0.4300
412	0.4800
413	0.5300
414	0.5800
421	0.2300
422	0.2800
423	0.3300
424	0.3800
431	0.1300
432	0.1800
433	0.2300
434	0.2800
441	0.5300
442	0.5800
443	0.6300
444	0.6800
451	1.0000
452	1.0000
453	1.0000
454	1.0000
511	0.4000
512	0.4500
513	0.5000
514	0.5500
521	0.2000
522	0.2500
523	0.3000
524	0.3500
531	0.1000
532	0.1500
533	0.2000
534	0.2500
541	0.5000
542	0.5500
543	0.6000
544	0.6500
551	1.0000
552	1.0000
553	1.0000
554	1.0000
611	0.3800
612	0.4200
613	0.4800
614	0.5300
621	0.1700
622	0.2200
623	0.2700
624	0.3200
631	0.0700
632	0.1200
633	0.1700
634	0.2200
641	0.4800
642	0.5300
643	0.5800
644	0.6300
651	1.0000
652	1.0000
653	1.0000
654	1.0000
711	0.4300
712	0.4800
713	0.5300
714	0.5800
721	0.2300
722	0.2800
723	0.3300
724	0.3800
731	0.1300
732	0.1800
733	0.2300
734	0.2800
741	0.5300
742	0.5800
743	0.6300
744	0.6800
751	1.0000
752	1.0000
753	1.0000
754	1.0000
811	0.4500
812	0.5000
813	0.5500
814	0.6000
821	0.2500
822	0.3000
823	0.3500
824	0.4000
831	0.1500
832	0.2000
833	0.2500
834	0.3000
841	0.5500
842	0.5800
843	0.6300
844	0.6800
851	1.0000
852	1.0000
853	1.0000
854	1.0000
911	0.4800
912	0.5300
913	0.5800
914	0.6300
921	0.2800
922	0.3300
923	0.3800
924	0.4300
931	0.1800
932	0.2300
933	0.2800
934	0.3300
941	0.5800
942	0.6300
943	0.6800
944	0.7300
951	1.0000
952	1.0000
953	1.0000
954	1.0000
1011	0.5000
1012	0.5500
1013	0.6000
1014	0.6500
1021	0.3000
1022	0.3500
1023	0.4000
1024	0.4500
1031	0.2000
1032	0.2500
1033	0.3000
1034	0.3500
1041	0.6000
1042	0.6500
1043	0.7000
1044	0.7500
1051	1.0000
1052	1.0000
1053	1.0000
1054	1.0000
1111	0.5300
1112	0.5800
1113	0.6300
1114	0.6800
1121	0.3300
1122	0.3800
1123	0.4300
1124	0.4800
1131	0.2300
1132	0.2800
1133	0.3300
1134	0.3800
1141	0.6300
1142	0.6800
1143	0.7300
1144	0.7800
1151	1.0000
1152	1.0000
1153	1.0000
1154	1.0000
1211	0.5500
1212	0.6000
1213	0.6500
1214	0.7000
1221	0.3500
1222	0.4000
1223	0.4500
1224	0.5000
1231	0.2500
1232	0.3000
1233	0.3500
1234	0.4000
1241	0.6500
1242	0.7000
1243	0.7500
1244	0.8000
1251	1.0000
1252	1.0000
1253	1.0000
1254	1.0000
