1	0.0000
2	0.5000
10	0.6000
4	0.6000
201	0.6000
202	0.6000
5	0.6000
6	0.2000
3	0.4000
7	0.0000
21	0.0000
27	0.0000
23	1.0000
28	1.0000
29	0.2000
31	0.2000
32	0.9000
33	0.5000
36	0.2000
35	0.2000
54	0.0000
53	0.0000
44	0.4000
37	0.3000
51	0.0000
55	0.0000
52	0.0000
301	0.9000
302	0.9000
303	0.2000
304	0.2000
305	0.2000
306	0.2000
307	1.0000
