
D:\HD\BSC\WetSpass>python kernprof.py -l -v WetSpass_nov2013_perfver.py
asc2map version: Nov 30 2009 (win32/msvc)
number lines read: 2442
number of non-mv cells: 8480702
number of mv cells: 3260818
asc2map version: Nov 30 2009 (win32/msvc)
number lines read: 2442
number of non-mv cells: 8480852
number of mv cells: 3260668
asc2map version: Nov 30 2009 (win32/msvc)
number lines read: 2442
number of non-mv cells: 8480702
number of mv cells: 3260818
asc2map version: Nov 30 2009 (win32/msvc)
number lines read: 2442
number of non-mv cells: 8480852
number of mv cells: 3260668
asc2map version: Nov 30 2009 (win32/msvc)
number lines read: 2442
number of non-mv cells: 8480852
number of mv cells: 3260668
asc2map version: Nov 30 2009 (win32/msvc)
number lines read: 2442
number of non-mv cells: 8480870
number of mv cells: 3260650
asc2map version: Nov 30 2009 (win32/msvc)
number lines read: 2442
number of non-mv cells: 8480870
number of mv cells: 3260650
asc2map version: Nov 30 2009 (win32/msvc)
number lines read: 2442
number of non-mv cells: 8480870
number of mv cells: 3260650
asc2map version: Nov 30 2009 (win32/msvc)
number lines read: 2442
number of non-mv cells: 8480870
number of mv cells: 3260650
asc2map version: Nov 30 2009 (win32/msvc)
number lines read: 2442
number of non-mv cells: 8483556
number of mv cells: 3257964
asc2map version: Nov 30 2009 (win32/msvc)
number lines read: 2442
number of non-mv cells: 8483556
number of mv cells: 3257964
asc2map version: Nov 30 2009 (win32/msvc)
number lines read: 2442
number of non-mv cells: 8483556
number of mv cells: 3257964
asc2map version: Nov 30 2009 (win32/msvc)
number lines read: 2442
number of non-mv cells: 8483556
number of mv cells: 3257964
asc2map version: Nov 30 2009 (win32/msvc)
number lines read: 2442
number of non-mv cells: 8480702
number of mv cells: 3260818
asc2map version: Nov 30 2009 (win32/msvc)
number lines read: 2442
number of non-mv cells: 8480702
number of mv cells: 3260818
Wrote profile results to WetSpass_nov2013_perfver.py.lprof
Timer unit: 2.69469e-007 s

File: WetSpass_nov2013_perfver.py
Function: asc2map at line 31
Total time: 194.447 s

Line #      Hits         Time  Per Hit   % Time  Line Contents
==============================================================
    31                                           @profile
    32                                           def asc2map (FileNameIn, FileNameOut, CloneFile):
    33        15          173     11.5      0.0       command='asc2map -a %s %s --clone %s -S -m -9999' %(FileNameIn, FileNameOut, CloneFile)
    34        15    721592544 48106169.6    100.0       os.system(command)

File: WetSpass_nov2013_perfver.py
Function: map2asc at line 36
Total time: 0 s

Line #      Hits         Time  Per Hit   % Time  Line Contents
==============================================================
    36                                           @profile
    37                                           def map2asc (FileNameIn, FileNameOut, CloneFile):
    38                                                command='map2asc %s %s --clone %s' %(FileNameIn, FileNameOut, CloneFile)
    39                                                os.system(command)

File: WetSpass_nov2013_perfver.py
Function: Wetspass_function at line 41
Total time: 19.2429 s

Line #      Hits         Time  Per Hit   % Time  Line Contents
==============================================================
    41                                           @profile
    42                                           def Wetspass_function(elevation, soil, slope, landuse_w, landuse_s, rainfall_w, rainfall_s, PET_w, PET_s, Temp_w, Temp_s, Wind_w, Wind_s, GWdepth_w, GWdepth_s):
    43                                                 ########    Read Input tables
    44         1      5304674 5304674.0      7.4        Impervious_Runoff_classes=lookupscalar("imp_classes.tbl",landuse_w)
    45         1      4614578 4614578.0      6.5        Veg_Runoff_classes=lookupscalar("veg_classes.tbl",landuse_w)
    46         1      4792074 4792074.0      6.7        interception_w=lookupscalar("intercepfactor_w.tbl",landuse_w)/100.0
    47         1      4844142 4844142.0      6.8        interception_s=lookupscalar("intercepfactor_s.tbl",landuse_w)/100.0
    48         1      2422055 2422055.0      3.4        Hortonian_w=lookupscalar("Hortonian_w.tbl",soil)
    49         1      2301337 2301337.0      3.2        Hortonian_s=lookupscalar("Hortonian_s.tbl",soil)
    50         1      4789503 4789503.0      6.7        VegArea_w=lookupscalar("VegArea_w.tbl",landuse_w)
    51         1      4760479 4760479.0      6.7        VegArea_s=lookupscalar("VegArea_s.tbl",landuse_w)
    52         1      4828937 4828937.0      6.8        BareArea_w=lookupscalar("BareArea_w.tbl",landuse_w)
    53         1      4692690 4692690.0      6.6        BareArea_s=lookupscalar("BareArea_s.tbl",landuse_w)
    54         1      4610309 4610309.0      6.5        ImpArea_w=lookupscalar("ImpArea_w.tbl",landuse_w)
    55         1      4605343 4605343.0      6.4        ImpArea_s=lookupscalar("ImpArea_s.tbl",landuse_w)
    56         1      4606147 4606147.0      6.5        OWArea_w=lookupscalar("OWArea_w.tbl",landuse_w)
    57         1      4607722 4607722.0      6.5        OWArea_s=lookupscalar("OWArea_s.tbl",landuse_w)
    58         1      4623783 4623783.0      6.5        zveg_w=lookupscalar("VegHeight_w.tbl",landuse_w)
    59         1      4610284 4610284.0      6.5        zveg_s=lookupscalar("VegHeight_s.tbl",landuse_w)
    60         1       396201 396201.0      0.6        LAI_w=lookupscalar("LAI_w.tbl",landuse_w)
    61                                                 LAI_s=lookupscalar("LAI_s.tbl",landuse_w)
    62                                                 minstomata_w=lookupscalar("minstomata_w.tbl",landuse_w)
    63                                                 minstomata_s=lookupscalar("minstomata_s.tbl",landuse_w)
    64                                                 A1=lookupscalar("A1.tbl",soil)                                                                              # Calibration Parameter
    65                                                 FC=lookupscalar("field_capacity.tbl",soil)
    66                                                 WP=lookupscalar("wilting_point.tbl",soil)
    67                                                 Rootdepth_w=lookupscalar("rootdepth_w.tbl",landuse_w)
    68                                                 Rootdepth_s=lookupscalar("rootdepth_s.tbl",landuse_w)
    69                                                 Tension_ht=lookupscalar("tension_height.tbl",soil)
    70                                                 Evapo_depth=lookupscalar("evapo_depth.tbl",soil)
    71                                                 Residual_water_content=lookupscalar("res_water_content.tbl",soil)
    72
    73                                                 ###################    CALCULATION OF WINTER WATER BALANCE
    74                                                 ########    Process 1: Calculation of Winter Interception
    75                                                 interception_w=interception_w*rainfall_w
    76                                                 interception_w=ifthenelse(interception_w>PET_w,PET_w,interception_w)
    77                                                 TotalInterception_w=interception_w*VegArea_w
    78                                                 report(TotalInterception_w,"Output//TotalInterception_w.map")
    79                                                 map2asc('TotalInterception_w.map','TotalInterception_w.asc','clone.map')
    80
    81
    82                                                 ########    Process 2: Calculation of Winter Runoff
    83                                                 # Reclassify the landuse and slope grid
    84                                                 slope_classes=ifthenelse(slope<=0.5,scalar(1),ifthenelse(slope<=5,scalar(2),ifthenelse(slope<=10,scalar(3),scalar(4))))
    85
    86                                                 # Combine soil, vegtation runoff classes and slope classes
    87                                                 Unique_Veg_Number=(100*soil)+(10*Veg_Runoff_classes)+(slope_classes)
    88                                                 Veg_Runoff_Coefficient=lookupscalar("Veg_Runoff_Coefficient.tbl",Unique_Veg_Number)
    89
    90                                                 # Combine soil and slope classes
    91                                                 Unique_Bare_Number=(10*soil)+(slope_classes)
    92                                                 Bare_Runoff_Coefficient=lookupscalar("Bare_Runoff_Coefficient.tbl",Unique_Bare_Number)
    93
    94                                                 # Combine impervious runoff classes and slope
    95                                                 Unique_Impervious_Number=(10*Impervious_Runoff_classes)+(slope_classes)
    96                                                 Impr_Runoff_Coefficient=ifthenelse(Unique_Impervious_Number>=11,lookupscalar("Imp_Runoff_Coefficient.tbl",Unique_Impervious_Number),scalar(0))
    97                                                 # As minimum value of unique number will be 1, for which no coefficient is defined in the table. Its a bug in the WetSpass ArcView.
    98
    99                                                 # Calculation of Potential Runoff
   100                                                 potentialvegrunoff_w=Veg_Runoff_Coefficient*(rainfall_w-interception_w)
   101                                                 report(potentialvegrunoff_w,"Output//potentialvegrunoff_w.map")
   102                                                 map2asc('potentialvegrunoff_w.map','potentialvegrunoff_w.asc','clone.map')
   103
   104                                                 potentialbarerunoff_w=Bare_Runoff_Coefficient*rainfall_w
   105                                                 report(potentialbarerunoff_w,"Output//potentialbarerunoff_w.map")
   106                                                 map2asc('potentialbarerunoff_w.map','potentialbarerunoff_w.asc','clone.map')
   107
   108                                                 # Calculation of Runoff
   109                                                 # Hortonian flow is infiltration excess flow while soil is still unsaturated, but rainfall intensity is higher. Should it be taken into account for vegetated surfaces or bare soil???
   110                                                 # Runoff discharge area is set to 0.8, balance will contribute towards evapo-transpiration and recharge..
   111
   112                                                 vegrunoff_w=ifthenelse(GWdepth_w>scalar(0),(potentialvegrunoff_w*Hortonian_w),scalar(0.8)*(rainfall_w-interception_w))
   113                                                 vegrunoff_w=ifthenelse(vegrunoff_w<0,scalar(0),vegrunoff_w)
   114                                                 netvegrunoff_w=vegrunoff_w*VegArea_w
   115                                                 report(vegrunoff_w,"vegrunoff_w.map")
   116                                                 map2asc('vegrunoff_w.map','vegrunoff_w.asc','clone.map')
   117
   118                                                 barerunoff_w=ifthenelse(GWdepth_w>0,potentialbarerunoff_w*Hortonian_w,0.8*(rainfall_w-interception_w))
   119                                                 # Interception from baresoil is taken into account in WetSpass ArcView? Should it be taken into account??
   120                                                 barerunoff_w=ifthenelse(barerunoff_w<0,scalar(0),barerunoff_w)
   121                                                 netbarerunoff_w=barerunoff_w*BareArea_w
   122                                                 report(barerunoff_w,"barerunoff_w.map")
   123                                                 map2asc('barerunoff_w.map','barerunoff_w.asc','clone.map')
   124
   125                                                 OWrunoff_w=ifthenelse(OWArea_w<=0,scalar(0),scalar(1.0)*(rainfall_w-PET_w))
   126                                                 # Why there is need to multiply it grid (1). Further, is PET substraction prior to runoff is OK?
   127                                                 OWrunoff_w=ifthenelse(OWrunoff_w<0,scalar(0),OWrunoff_w)
   128                                                 report(OWrunoff_w,"OWrunoff_w.map")
   129                                                 map2asc('OWrunoff_w.map','OWrunoff_w.asc','clone.map')
   130                                                 netOWrunoff_w=OWrunoff_w*OWArea_w
   131
   132                                                 Imperrunoff_w=rainfall_w*Impr_Runoff_Coefficient
   133                                                 Imperrunoff_w=ifthenelse(Imperrunoff_w<0,scalar(0),Imperrunoff_w)
   134                                                 netImperrunoff_w=Imperrunoff_w*ImpArea_w
   135                                                 report(Imperrunoff_w,"Imperrunoff_w.map")
   136                                                 map2asc('Imperrunoff_w.map','Imperrunoff_w.asc','clone.map')
   137
   138                                                 # Calculation of Summed Runoff
   139                                                 TotalRunoff_w=netvegrunoff_w+netbarerunoff_w+netOWrunoff_w+netImperrunoff_w
   140                                                 report(TotalRunoff_w,"TotalRunoff_w.map")
   141                                                 map2asc('TotalRunoff_w.map','TotalRunoff_w.asc','clone.map')
   142
   143
   144                                                 ########    Process 3: Calculation of Transpiration
   145                                                 # zveg= vegetation height;    zo=roughness length;    zd=zero displacement length
   146                                                 zd_w=scalar(0.67)*zveg_w
   147                                                 RoughnessOM_w=scalar(0.123)*zveg_w
   148                                                 # To avoid non-zero values and its use as denominator
   149                                                 RoughnessOM_w=ifthenelse(RoughnessOM_w>scalar(0),RoughnessOM_w,scalar(0.01))
   150
   151                                                 RoughnessOV_w=scalar(0.0123)*zveg_w
   152                                                 RoughnessOV_w=ifthenelse(RoughnessOV_w>scalar(0),RoughnessOV_w,scalar(0.001))
   153                                                 LAIoriginal_w=LAI_w
   154                                                 LAI_w=ifthenelse(LAI_w>scalar(0),LAI_w,scalar(1))
   155
   156                                                 # Calculation of Penman Coefficient
   157                                                 gamma=0.66                     #Psychometric constant
   158                                                 a=scalar(25083.0)
   159                                                 b_w=Temp_w+scalar(237.3)
   160                                                 c=scalar(2.71828)
   161                                                 d=scalar(17.3)
   162                                                 PenmannCoefficient_w=gamma/((a/sqr(b_w))*(pow(c,(d*Temp_w/b_w))))
   163                                                 report(PenmannCoefficient_w,'PenmannCoefficient_w.map')
   164                                                 map2asc('PenmannCoefficient_w.map','PenmannCoefficient_w.asc','clone.map')
   165
   166                                                 # Wind speed measurement level is set to 2.0 m
   167                                                 windspeed_measurement_level=scalar(2.0)
   168                                                 old_windspeed_ML=windspeed_measurement_level
   169                                                 WSML_w=ifthenelse(windspeed_measurement_level<=zveg_w,(zveg_w+scalar(2.0)),windspeed_measurement_level)
   170
   171                                                 WSnominatorcor_w=Wind_w*ln((WSML_w-zd_w)/RoughnessOM_w)
   172                                                 factor=(scalar(0.818)+ln(old_windspeed_ML+scalar(4.75)))
   173                                                 Wind_w=ifthenelse(old_windspeed_ML<=zveg_w,WSnominatorcor_w/factor,Wind_w)
   174                                                 WindMLRoughness_w=(ln((WSML_w-zd_w)/RoughnessOM_w))*(ln((WSML_w-zd_w)/RoughnessOV_w))
   175
   176                                                 Karman=0.4     #Defining Karman Constant
   177                                                 Aerodynamicresist_w=WindMLRoughness_w*(scalar(1.0)/(sqr(Karman)*Wind_w))
   178                                                 Canopyresist_w=minstomata_w/LAI_w
   179                                                 Vegfactor_w=(scalar(1.0)+PenmannCoefficient_w)/(scalar(1.0)+((scalar(1.0)+(Canopyresist_w/Aerodynamicresist_w))*PenmannCoefficient_w))
   180
   181
   182                                                 # Brooks and Corey bubbling capillary pressure
   183                                                 Rootwater_w=((FC-WP)*(Rootdepth_w+Tension_ht)*scalar(1000))    # 1000 to convert from 'm' to 'mm'
   184                                                 GWdepth_w=ifthenelse((GWdepth_w-Tension_ht)>=0,(GWdepth_w-Tension_ht),scalar(0))
   185                                                 AWC_w=(rainfall_w+(scalar(12)*Rootwater_w))            # Why, its multiplied by 12?????
   186                                                 PETVeg_w=Vegfactor_w*PET_w
   187                                                 A1PowerVeg_w=AWC_w/PETVeg_w
   188                                                 # To limit the value of A1PowerVegetation             From where 30.0 came????
   189                                                 A1PowerVeg_w=ifthenelse(A1PowerVeg_w>scalar(30.0),scalar(30.0),A1PowerVeg_w)
   190                                                 report(A1PowerVeg_w,'A1PowerVeg_w.map')
   191                                                 map2asc('A1PowerVeg_w.map','A1PowerVeg_w.asc','clone.map')
   192
   193
   194                                                 #Actual Transpiration Calculation
   195                                                 PotentialtoActualtranspirationfactor_w=(scalar(1.0)-(pow(A1,A1PowerVeg_w)))
   196                                                 report(PotentialtoActualtranspirationfactor_w,'PotentialtoActualtranspirationfactor_w.map')
   197                                                 map2asc('PotentialtoActualtranspirationfactor_w.map','PotentialtoActualtranspirationfactor_w.asc','clone.map')
   198
   199                                                 Actualtranspiration_w=PotentialtoActualtranspirationfactor_w*PETVeg_w
   200                                                 Actualtranspiration_w=ifthenelse(Actualtranspiration_w>(rainfall_w-interception_w-vegrunoff_w),(rainfall_w-interception_w-vegrunoff_w),Actualtranspiration_w)
   201                                                 Actualtranspiration_w=ifthenelse(Actualtranspiration_w>(PET_w-interception_w),(PET_w-interception_w),Actualtranspiration_w)
   202                                                 Actualtranspiration_w=ifthenelse(LAIoriginal_w==scalar(0),scalar(0),Actualtranspiration_w)
   203                                                 GWTranspiration_w=ifthenelse(GWdepth_w<=Rootdepth_w,(PETVeg_w-Actualtranspiration_w),scalar(0))
   204                                                 Transpiration_w=ifthenelse(GWdepth_w<=Rootdepth_w,PETVeg_w,Actualtranspiration_w)                 # Look into detail, that means, left over PET is going to be deducted from the GW Evaporation.
   205                                                 report(Transpiration_w,'Transpiration_w.map')
   206                                                 map2asc('Transpiration_w.map','Transpiration_w.asc','clone.map')
   207
   208
   209                                                 ##    Calculation of Baresoil Evaporation
   210
   211                                                 # Brooks and Corey bubbling capillary pressure to evaporation depth. Should'nt the factor of 12 be 6?????????
   212                                                 A1PowerBaresoil_w=(rainfall_w+(scalar(12.0)*(FC-Residual_water_content)*(Evapo_depth+Tension_ht)*1000))/PET_w
   213                                                 # To limit the value of A1PowerVegetation to a maximum limit
   214                                                 A1PowerBaresoil_w=ifthenelse(A1PowerBaresoil_w>scalar(30.0),scalar(30.0),A1PowerBaresoil_w)                   #What is 30.0?????
   215                                                 # Is there any theoretical background of this factor from the literature?? Does it represent Potential to Actual or vice versa????
   216                                                 PotentoActualEvapofactorbare_w=(scalar(1.0)-(pow(A1,A1PowerBaresoil_w)))
   217                                                 ActualBaresoilEvapo_w=PotentoActualEvapofactorbare_w*PET_w
   218                                                 ActualBaresoilEvapo_w=ifthenelse(ActualBaresoilEvapo_w>(rainfall_w-barerunoff_w),(rainfall_w-barerunoff_w),ActualBaresoilEvapo_w)
   219                                                 # Why actual estimate is being compared with PET value, why not evaporation??
   220                                                 ActualBaresoilEvapo_w=ifthenelse(ActualBaresoilEvapo_w>PET_w,PET_w,ActualBaresoilEvapo_w)
   221                                                 # We assume that evapotranspiration deficit is being compensated from groundwater evaporation in case of higher GWDepth?? Is it OK???
   222                                                 GWEvapo_w=ifthenelse(GWdepth_w<Evapo_depth,(PET_w-ActualBaresoilEvapo_w),scalar(0))
   223
   224                                                 #    Should'nt it be the sum of Actual Bare soil Evapotation and GW_Evaporation
   225                                                 ActualBaresoilEvapo_w=ifthenelse(GWdepth_w<Evapo_depth,PET_w,ActualBaresoilEvapo_w)
   226                                                 report(ActualBaresoilEvapo_w,"ActualBaresoilEvapo_w.map")
   227                                                 map2asc('ActualBaresoilEvapo_w.map','ActualBaresoilEvapo_w.asc','clone.map')
   228
   229                                                 ##    Calculation of Impervious Evaporation
   230                                                 ImperviousEvapo2Precip_Ratio=scalar(0.85)
   231                                                 ImperviousEvapo_w=ImperviousEvapo2Precip_Ratio*(rainfall_w-Imperrunoff_w)
   232                                                 ImperviousEvapo_w=ifthenelse(ImperviousEvapo_w>PET_w,PET_w,ImperviousEvapo_w)
   233                                                 report(ImperviousEvapo_w,"ImperviousEvapo_w.map")
   234                                                 map2asc('ImperviousEvapo_w.map','ImperviousEvapo_w.asc','clone.map')
   235
   236                                                 ##    Calculation of weighted summed evapo-transpiration
   237                                                 Total_Actualtranspiration_w=Transpiration_w*VegArea_w
   238                                                 report(Total_Actualtranspiration_w,"Total_Actualtranspiration_w.map")
   239                                                 map2asc('Total_Actualtranspiration_w.map','Total_Actualtranspiration_w.asc','clone.map')
   240                                                 Total_ActualBaresoilEvapo_w=ActualBaresoilEvapo_w*BareArea_w
   241                                                 Total_OWEvaporation_w=PET_w*OWArea_w
   242                                                 Total_ImperEvaporation_w=ImperviousEvapo_w*ImpArea_w
   243                                                 Total_GWTranspiration_w=GWTranspiration_w*VegArea_w
   244                                                 Total_GWEvaporation_w=GWEvapo_w*BareArea_w
   245
   246                                                 Total_Winter_Evapotranspiration=TotalInterception_w+Total_Actualtranspiration_w+Total_ActualBaresoilEvapo_w+Total_OWEvaporation_w+Total_ImperEvaporation_w+Total_GWTranspiration_w+Total_GWEvaporation_w
   247                                                 report(Total_Winter_Evapotranspiration,"Total_Winter_Evapotranspiration.map")
   248                                                 map2asc('Total_Winter_Evapotranspiration.map','Total_Winter_Evapotranspiration.asc','clone.map')
   249
   250
   251                                                 ########    Process 3: Calculation of Recharge
   252                                                 Recharge_w=rainfall_w-Total_Winter_Evapotranspiration-TotalRunoff_w           # What about interception???????????
   253                                                 Recharge_w=ifthenelse(OWArea_w>0,ifthenelse(Recharge_w<0,scalar(0),Recharge_w), Recharge_w)
   254                                                 Recharge_w=ifthenelse(Recharge_w<0,ifthenelse(GWdepth_w>Rootdepth_w,scalar(0),Recharge_w),Recharge_w)
   255                                                 report(Recharge_w,"Recharge_w.map")
   256                                                 map2asc('Recharge_w.map','Recharge_w.asc','clone.map')
   257                                                 WB_error_w=ifthenelse(Recharge_w<0,ifthenelse(GWdepth_w>Rootdepth_w,Recharge_w,scalar(0)),scalar(0))
   258                                                 report(WB_error_w,"WB_error_W.map")
   259                                                 map2asc('WB_error_w.map','WB_error_w.asc','clone.map')
   260
   261                                                 ###################    WINTER TO SUMMER SOIL WATER STORAGE
   262
   263                                                 #changed_Jef
   264                                                 #SoilwaterStorage_w=VegArea_w*(rainfall_w-interception_w-vegrunoff_w-Transpiration_w)
   265                                                 #SoilwaterStorage_w=ifthenelse(SoilwaterStorage_w<0,scalar(0),SoilwaterStorage_w)
   266                                                 SoilwaterStorage_w = Recharge_w
   267
   268                                                 ###################    CALCULATION OF SUMMER WATER BALANCE
   269                                                 ########    Process 1: Calculation of Summer Interception
   270                                                 interception_s=interception_s*rainfall_s
   271                                                 interception_s=ifthenelse(interception_s>PET_s,PET_s,interception_s)
   272                                                 TotalInterception_s=interception_s*VegArea_s
   273                                                 report(TotalInterception_s,"TotalInterception_s.map")
   274                                                 map2asc('TotalInterception_s.map','TotalInterception_s.asc','clone.map')
   275
   276
   277                                                 ########    Process 2: Calculation of Summer Runoff
   278                                                 # Using same reclassification of landuse, soil and slope grids as for Winter calculations
   279
   280                                                 # Calculation of Potential Runoff
   281                                                 potentialvegrunoff_s=Veg_Runoff_Coefficient*(rainfall_s-interception_s)
   282                                                 report(potentialvegrunoff_s,"potentialvegrunoff_s.map")
   283                                                 map2asc('potentialvegrunoff_s.map','potentialvegrunoff_s.asc','clone.map')
   284
   285                                                 potentialbarerunoff_s=Bare_Runoff_Coefficient*rainfall_s
   286                                                 report(potentialbarerunoff_s,"potentialbarerunoff_s.map")
   287                                                 map2asc('potentialbarerunoff_s.map','potentialbarerunoff_s.asc','clone.map')
   288
   289                                                 # Calculation of Runoff
   290                                                 # Hortonian flow is infiltration excess flow while soil is still unsaturated, but rainfall intensity is higher. Should it be taken into account for vegetated surfaces or bare soil???
   291                                                 # Runoff discharge area is set to 0.8, balance will contribute towards evapo-transpiration and recharge..
   292
   293                                                 vegrunoff_s=ifthenelse(GWdepth_s>scalar(0),(potentialvegrunoff_s*Hortonian_s),scalar(0.8)*(rainfall_s-interception_s))
   294                                                 vegrunoff_s=ifthenelse(vegrunoff_s<0,scalar(0),vegrunoff_s)
   295                                                 netvegrunoff_s=vegrunoff_s*VegArea_s
   296                                                 report(vegrunoff_s,"vegrunoff_s.map")
   297                                                 map2asc('vegrunoff_s.map','vegrunoff_s.asc','clone.map')
   298
   299                                                 barerunoff_s=ifthenelse(GWdepth_s>0,potentialbarerunoff_s*Hortonian_s,scalar(0.8)*(rainfall_s-interception_s))
   300                                                 # Interception from baresoil is taken into account in WetSpass ArcView? Should it be taken into account??
   301                                                 barerunoff_s=ifthenelse(barerunoff_s<0,scalar(0),barerunoff_s)
   302                                                 netbarerunoff_s=barerunoff_s*BareArea_s
   303                                                 report(barerunoff_s,"barerunoff_s.map")
   304                                                 map2asc('barerunoff_s.map','barerunoff_s.asc','clone.map')
   305
   306                                                 OWrunoff_s=ifthenelse(OWArea_s<=0,scalar(0),scalar(1.0)*(rainfall_s-PET_s))
   307                                                 #Why there is need to multiply it grid (1). Further, is PET substraction prior to runoff is OK?
   308                                                 OWrunoff_s=ifthenelse(OWrunoff_s<0,scalar(0),OWrunoff_s)
   309                                                 report(OWrunoff_s,"OWrunoff_s.map")
   310                                                 map2asc('OWrunoff_s.map','OWrunoff_s.asc','clone.map')
   311                                                 netOWrunoff_s=OWrunoff_s*OWArea_s
   312
   313                                                 Imperrunoff_s=rainfall_s*Impr_Runoff_Coefficient
   314                                                 Imperrunoff_s=ifthenelse(Imperrunoff_s<0,scalar(0),Imperrunoff_s)
   315                                                 netImperrunoff_s=Imperrunoff_s*ImpArea_s
   316                                                 report(Imperrunoff_s,"Imperrunoff_s.map")
   317                                                 map2asc('Imperrunoff_s.map','Imperrunoff_s.asc','clone.map')
   318
   319                                                 # Calculation of Summed Runoff
   320                                                 TotalRunoff_s=netvegrunoff_s+netbarerunoff_s+netOWrunoff_s+netImperrunoff_s
   321                                                 report(TotalRunoff_s,"TotalRunoff_s.map")
   322                                                 map2asc('TotalRunoff_s.map','TotalRunoff_s.asc','clone.map')
   323
   324
   325                                                 ########    Process 3: Calculation of Transpiration
   326                                                 # zveg= vegetation height;    zo=roughness length;    zd=zero displacement length
   327                                                 zd_s=scalar(0.67)*zveg_s
   328                                                 RoughnessOM_s=scalar(0.123)*zveg_s
   329                                                 # To avoid non-zero values and its use as denominator
   330                                                 RoughnessOM_s=ifthenelse(RoughnessOM_s>scalar(0),RoughnessOM_s,scalar(0.01))
   331
   332                                                 RoughnessOV_s=scalar(0.0123)*zveg_s
   333                                                 RoughnessOV_s=ifthenelse(RoughnessOV_s>scalar(0),RoughnessOV_s,scalar(0.001))
   334                                                 LAIoriginal_s=LAI_s
   335                                                 LAI_s=ifthenelse(LAI_s>scalar(0),LAI_s,scalar(1))
   336
   337                                                 # Calculation of Penman Coefficient
   338                                                 gamma=0.66                     #Psychometric constant
   339                                                 a=scalar(25083.0)
   340                                                 b_s=Temp_s+scalar(237.3)
   341                                                 c=scalar(2.71828)
   342                                                 d=scalar(17.3)
   343                                                 PenmannCoefficient_s=gamma/((a/sqr(b_s))*(pow(c,(d*Temp_s/b_s))))
   344
   345                                                 # Wind speed measurement level is set to 2.0 m
   346                                                 WSML_s=ifthenelse(windspeed_measurement_level<=zveg_s,(zveg_s+scalar(2.0)),windspeed_measurement_level)
   347
   348                                                 WSnominatorcor_s=Wind_s*ln((WSML_s-zd_s)/RoughnessOM_s)
   349                                                 factor=(scalar(0.818)+ln(old_windspeed_ML+scalar(4.75)))
   350                                                 Wind_s=ifthenelse(old_windspeed_ML<=zveg_s,WSnominatorcor_s/factor,Wind_s)
   351                                                 WindMLRoughness_s=(ln((WSML_s-zd_s)/RoughnessOM_s))*(ln((WSML_s-zd_s)/RoughnessOV_s))
   352
   353                                                 Karman=0.4     #Defining Karman Constant
   354                                                 Aerodynamicresist_s=WindMLRoughness_s*(scalar(1.0)/(sqr(Karman)*Wind_s))
   355                                                 Canopyresist_s=minstomata_s/LAI_s
   356                                                 Vegfactor_s=(scalar(1.0)+PenmannCoefficient_s)/(scalar(1.0)+((scalar(1.0)+(Canopyresist_s/Aerodynamicresist_s))*PenmannCoefficient_s))
   357
   358                                                 # Brooks and Corey bubbling capillary pressure
   359                                                 Rootwater_s=((FC-WP)*(Rootdepth_s+Tension_ht)*scalar(1000))    # 1000 to convert from 'm' to 'mm'
   360                                                 GWdepth_s=ifthenelse((GWdepth_s-Tension_ht)>=0,(GWdepth_s-Tension_ht),scalar(0))
   361                                                 AWC_s=(rainfall_s+(scalar(12)*Rootwater_s))            # Why, its multiplied by 12?????
   362                                                 PETVeg_s=Vegfactor_s*PET_s
   363                                                 A1PowerVeg_s=AWC_s/PETVeg_s
   364                                                 # To limit the value of A1PowerVegetation             From where 30.0 came????
   365                                                 A1PowerVeg_s=ifthenelse(A1PowerVeg_s>scalar(30.0),scalar(30.0),A1PowerVeg_s)
   366
   367                                                 #Actual Transpiration Calculation
   368                                                 PotentialtoActualtranspirationfactor_s=(scalar(1.0)-(pow(A1,A1PowerVeg_s)))
   369                                                 SoilwaterStorage_w=ifthenelse(SoilwaterStorage_w>Rootwater_s,Rootwater_s,SoilwaterStorage_w)
   370                                                 Actualtranspiration_s=PotentialtoActualtranspirationfactor_s*PETVeg_s
   371
   372                                                 Actualtranspiration_s=ifthenelse(Actualtranspiration_s>(rainfall_s-interception_s-vegrunoff_s+SoilwaterStorage_w),(rainfall_s-interception_s-vegrunoff_s+SoilwaterStorage_w),Actualtranspiration_s)
   373                                                 Actualtranspiration_s=ifthenelse(Actualtranspiration_s>(PET_s-interception_s),(PET_s-interception_s),Actualtranspiration_s)
   374                                                 Actualtranspiration_s=ifthenelse(LAIoriginal_s<=scalar(0),scalar(0),Actualtranspiration_s)
   375                                                 GWTranspiration_s=ifthenelse(GWdepth_s<=Rootdepth_s,(PETVeg_s-Actualtranspiration_s),scalar(0))
   376                                                 Transpiration_s=ifthenelse(GWdepth_w<=Rootdepth_s,PETVeg_s,Actualtranspiration_s)
   377                                                 report(Transpiration_s,"Transpiration_s.map")
   378                                                 map2asc('Transpiration_s.map','Transpiration_s.asc','clone.map')
   379
   380
   381                                                 ##    Calculation of Baresoil Evaporation
   382
   383                                                 # Brooks and Corey bubbling capillary pressure to evaporation depth
   384                                                 A1PowerBaresoil_s=(rainfall_s+(scalar(12.0)*(FC-Residual_water_content)*(Evapo_depth+Tension_ht)*1000))/PET_s
   385                                                 # To limit the value of A1PowerVegetation
   386                                                 A1PowerBaresoil_s=ifthenelse(A1PowerBaresoil_s>scalar(30.0),scalar(30.0),A1PowerBaresoil_s)                   #What is 30.0?????
   387                                                 PotentoActualEvapofactorbare_s=(scalar(1.0)-(pow(A1,A1PowerBaresoil_s)))
   388                                                 ActualBaresoilEvapo_s=PotentoActualEvapofactorbare_s*PET_s
   389                                                 ActualBaresoilEvapo_s=ifthenelse(ActualBaresoilEvapo_s>(rainfall_s-barerunoff_s),(rainfall_s-barerunoff_s),ActualBaresoilEvapo_s)
   390                                                 ActualBaresoilEvapo_s=ifthenelse(ActualBaresoilEvapo_s>PET_s,PET_s,ActualBaresoilEvapo_s)
   391                                                 GWEvapo_s=ifthenelse(GWdepth_s<Evapo_depth,(PET_s-ActualBaresoilEvapo_s),scalar(0))
   392
   393                                                 #    Should not it be the sum of Actual Bare soil Evapotation and GW_Evaporation
   394                                                 ActualBaresoilEvapo_s=ifthenelse(GWdepth_s<Evapo_depth,(PET_s),ActualBaresoilEvapo_s)
   395                                                 report(ActualBaresoilEvapo_s,"ActualBaresoilEvapo_s.map")
   396                                                 map2asc('ActualBaresoilEvapo_s.map','ActualBaresoilEvapo_s.asc','clone.map')
   397
   398                                                 ##    Calculation of Impervious Evaporation
   399                                                 ImperviousEvapo_s=ImperviousEvapo2Precip_Ratio*(rainfall_s-Imperrunoff_s)
   400                                                 ImperviousEvapo_s=ifthenelse(ImperviousEvapo_s>PET_s,PET_s,ImperviousEvapo_s)
   401                                                 report(ImperviousEvapo_s,"ImperviousEvapo_s.map")
   402                                                 map2asc('ImperviousEvapo_s.map','ImperviousEvapo_s.asc','clone.map')
   403
   404                                                 ##    Calculation of weighted summed evapo-transpiration
   405                                                 Total_Actualtranspiration_s=Transpiration_s*VegArea_s
   406                                                 Total_ActualBaresoilEvapo_s=ActualBaresoilEvapo_s*BareArea_s
   407                                                 Total_OWEvaporation_s=PET_s*OWArea_s
   408                                                 Total_ImperEvaporation_s=ImperviousEvapo_s*ImpArea_s
   409                                                 Total_GWTranspiration_s=GWTranspiration_s*VegArea_s
   410                                                 Total_GWEvaporation_s=GWEvapo_s*BareArea_s
   411
   412                                                 Total_Summer_Evapotranspiration=TotalInterception_s+Total_Actualtranspiration_s+Total_ActualBaresoilEvapo_s+Total_OWEvaporation_s+Total_ImperEvaporation_s+Total_GWTranspiration_s+Total_GWEvaporation_s
   413                                                 report(Total_Summer_Evapotranspiration,"Total_Summer_Evapotranspiration.map")
   414                                                 map2asc('Total_Summer_Evapotranspiration.map','Total_Summer_Evapotranspiration.asc','clone.map')
   415
   416
   417                                                 ########    Process 3: Calculation of Recharge
   418                                                 Recharge_s=rainfall_s-Total_Summer_Evapotranspiration-TotalRunoff_s           # What about interception???????????
   419                                                 Recharge_s=ifthenelse(OWArea_s>0,ifthenelse(Recharge_s<0,scalar(0),Recharge_s), Recharge_s)
   420                                                 Recharge_s=ifthenelse(Recharge_s<(scalar(0)-SoilwaterStorage_w),ifthenelse(GWdepth_s>Rootdepth_s,(scalar(0)-SoilwaterStorage_w),Recharge_s),Recharge_s)
   421                                                 report(Recharge_s,"Recharge_s.map")
   422                                                 map2asc('Recharge_s.map','Recharge_s.asc','clone.map')
   423
   424
   425                                                 WB_error_s=ifthenelse(Recharge_s<(scalar(0)-SoilwaterStorage_w), ifthenelse(GWdepth_s>Rootdepth_s,(Recharge_s+SoilwaterStorage_w),scalar(0)),scalar(0))
   426                                                 report(WB_error_s,"WB_error_s.map")
   427                                                 map2asc('WB_error_s.map','WB_error_s.asc','clone.map')
   428
   429
   430
   431                                                 ###################    SUMMATION OF RESULTS FOR THE WHOLE YEAR
   432                                                 Yearly_Interception=TotalInterception_w+TotalInterception_s
   433                                                 Yearly_Runoff=TotalRunoff_w+TotalRunoff_s
   434                                                 Yearly_Evapotranspiration=Total_Winter_Evapotranspiration+Total_Summer_Evapotranspiration
   435                                                 Yearly_Transpiration=Transpiration_w+Transpiration_s
   436                                                 Yearly_Baresoil_Evaporation=ActualBaresoilEvapo_w+ActualBaresoilEvapo_s
   437                                                 Yearly_Recharge=Recharge_w+Recharge_s
   438                                                 Yearly_WaterBalance_Error=WB_error_w+WB_error_s
   439
   440                                                 report(Yearly_Interception,"Yearly_Interception.map")
   441                                                 map2asc('Yearly_Interception.map','Yearly_Interception.asc','clone.map')
   442                                                 yearly_runoff_name='Yearly_Runoff.map'
   443                                                 report(Yearly_Runoff,yearly_runoff_name)
   444                                                 map2asc('Yearly_Runoff.map','Yearly_Runoff.asc','clone.map')
   445                                                 yearly_ET_name='Yearly_ET.map'
   446                                                 report(Yearly_Evapotranspiration,yearly_ET_name)
   447                                                 map2asc('Yearly_Evapotranspiration.map','Yearly_Evapotranspiration.asc','clone.map')
   448                                                 report(Yearly_Transpiration,"Yearly_Transpiration.map")
   449                                                 map2asc('Yearly_Transpiration.map','Yearly_Transpiration.asc','clone.map')
   450                                                 report(Yearly_Baresoil_Evaporation,"Yearly_Baresoil_Evaporation.map")
   451                                                 map2asc('Yearly_Baresoil_Evaporation.map','Yearly_Baresoil_Evaporation.asc','clone.map')
   452                                                 yearly_recharge_name='Yearly_Recharge.map'
   453                                                 report(Yearly_Recharge,yearly_recharge_name)
   454                                                 map2asc('Yearly_Recharge.map','Yearly_Recharge.asc','clone.map')
   455                                                 report(Yearly_WaterBalance_Error,"Yearly_WaterBalance_Error.map")
   456                                                 map2asc('Yearly_WaterBalance_Error.map','Yearly_WaterBalance_Error.asc','clone.map')
   457
   458                                                 return #TKR: optional, but clearly states the end of the function

File: WetSpass_nov2013_perfver.py
Function: main at line 462
Total time: 215.101 s

Line #      Hits         Time  Per Hit   % Time  Line Contents
==============================================================
   462                                           @profile
   463                                           def main():
   464         1           10     10.0      0.0      test = ["elevation", "soil", "slope", "landuse_w", "landuse_s", "ppt_w", "ppt_s", "PET_w", "PET_s", "Temp_w", "Temp_s", "Wind_w", "Wind_s", "GWdepth_w", "GWdepth_s"]
   465
   466        16          190     11.9      0.0      for element in test:
   467        15    721593498 48106233.2     90.4           asc2map(element+".asc", element+".map", "Clone.map")
   468
   469
   470         1       156601 156601.0      0.0      elevation=readmap('elevation.map')
   471         1       138396 138396.0      0.0      soil=readmap("soil.map")
   472         1       132527 132527.0      0.0      slope=readmap('slope.map')
   473         1       134726 134726.0      0.0      landuse_w=readmap("landuse_w.map")
   474         1       134317 134317.0      0.0      landuse_s=readmap("landuse_s.map")
   475         1       132155 132155.0      0.0      rainfall_w=readmap("ppt_w.map")
   476         1       133484 133484.0      0.0      rainfall_s=readmap("ppt_s.map")
   477         1       133009 133009.0      0.0      PET_w=readmap("PET_w.map")
   478         1       132481 132481.0      0.0      PET_s=readmap("PET_s.map")
   479         1       133673 133673.0      0.0      Temp_w=readmap("Temp_w")
   480         1       132222 132222.0      0.0      Temp_s=readmap("Temp_s")
   481         1       132796 132796.0      0.0      Wind_w=readmap("Wind_w.map")
   482         1      1918361 1918361.0      0.2      Wind_s=readmap("Wind_s.map")
   483         1      1559099 1559099.0      0.2      GWdepth_w=readmap("GWdepth_w.map")
   484         1       130927 130927.0      0.0      GWdepth_s=readmap("GWdepth_s.map")
   485
   486                                           #run wetspass
   487                                           #with Timer() as t:
   488         1     71411087 71411087.0      8.9      Wetspass_function(elevation, soil, slope, landuse_w, landuse_s, rainfall_w, rainfall_s, PET_w, PET_s, Temp_w, Temp_s, Wind_w, Wind_s, GWdepth_w, GWdepth_s)

Traceback (most recent call last):
  File "kernprof.py", line 167, in <module>
    sys.exit(main(sys.argv))
  File "kernprof.py", line 155, in main
    execfile(script_file, ns, ns)
  File "WetSpass_nov2013_perfver.py", line 491, in <module>
    main()
  File "C:\Python25\Lib\site-packages\line_profiler.py", line 92, in f
    result = func(*args, **kwds)
  File "WetSpass_nov2013_perfver.py", line 488, in main
    Wetspass_function(elevation, soil, slope, landuse_w, landuse_s, rainfall_w, rainfall_s, PET_w, PET_s, Temp_w, Temp_s, Wind_w, Wind_s, GWdepth_w, GWdepth_s)
  File "C:\Python25\Lib\site-packages\line_profiler.py", line 92, in f
    result = func(*args, **kwds)
  File "WetSpass_nov2013_perfver.py", line 60, in Wetspass_function
    LAI_w=lookupscalar("LAI_w.tbl",landuse_w)
  File "C:\PCRaster\Python\PCRaster\operations.py", line 1307, in lookupscalar
    _PCRaster._rte().checkAndExec(operator, 1 + len(arg2))
MemoryError

D:\HD\BSC\WetSpass>























































