ncols         10
nrows         10
xllcorner     186000
yllcorner     220500
cellsize      50
NODATA_value  -9999
3.27 3.27 3.27 3.27 3.27 3.27 3.27 3.27 3.27 3.27 
3.27 3.27 3.27 3.27 3.27 3.27 3.27 3.27 3.27 3.27 
3.27 3.27 3.27 3.27 3.27 3.27 3.27 3.27 3.27 3.27 
3.27 3.27 3.27 3.27 3.27 3.27 3.27 3.27 3.27 3.27 
3.27 3.27 3.27 3.27 3.27 3.27 3.27 3.27 3.27 3.27 
3.27 3.27 3.27 3.27 3.27 3.27 3.27 3.27 3.27 3.27 
3.27 3.27 3.27 3.27 3.27 3.27 3.27 3.27 3.27 3.27 
3.27 3.27 3.27 3.27 3.27 3.27 3.27 3.27 3.27 3.27 
3.27 3.27 3.27 3.27 3.27 3.27 3.27 3.27 3.27 3.27 
3.27 3.27 3.27 3.27 3.27 3.27 3.27 3.27 3.27 3.27 
